<svg width="48" height="48" viewBox="0 0 48 48" fill="none" xmlns="http://www.w3.org/2000/svg">
<path d="M21.6 7.80001L9.6 16.8C8.6 17.56 8 18.74 8 20V38C8 40.2 9.8 42 12 42H36C38.2 42 40 40.2 40 38V20C40 18.74 39.4 17.56 38.4 16.8L26.4 7.80001C25.7063 7.28378 24.8647 7.00497 24 7.00497C23.1353 7.00497 22.2937 7.28378 21.6 7.80001ZM25 25C25 26.66 23.66 28 22 28V35C22 35.56 21.56 36 21 36C20.44 36 20 35.56 20 35V28C18.34 28 17 26.66 17 25V20C17 19.44 17.44 19 18 19C18.56 19 19 19.44 19 20V25H20V20C20 19.44 20.44 19 21 19C21.56 19 22 19.44 22 20V25H23V20C23 19.44 23.44 19 24 19C24.56 19 25 19.44 25 20V25ZM29 36C28.44 36 28 35.56 28 35V29H27C26.44 29 26 28.56 26 28V23C26 21.24 27.14 19.74 28.72 19.22C29.34 19 30 19.5 30 20.18V35C30 35.56 29.56 36 29 36Z" fill="#ABCE37"/>
</svg>
